Compile Window Counts — getWindowCounts • STADEM
…
    Kevin See

    Examples

getWindowCounts(start_date = '20150301', end_date = '20150817')
#> Rows: 174 Columns: 7
#> ── Column specification ────────────────────────────────────────────────────────
#> Delimiter: ","
#> chr (6): year, mm-dd, location, parameter, unit, datatype
#> dbl (1): value
#> 
#> ℹ Use `spec()` to retrieve the full column specification for this data.
#> ℹ Specify the column types or set `show_col_types = FALSE` to quiet this message.
#> # A tibble: 170 × 4
#>    Species  Year Date       win_cnt
#>    <chr>   <int> <date>       <dbl>
#>  1 Chinook  2015 2015-03-01      NA
#>  2 Chinook  2015 2015-03-02      NA
#>  3 Chinook  2015 2015-03-03      NA
#>  4 Chinook  2015 2015-03-04      NA
#>  5 Chinook  2015 2015-03-05       0
#>  6 Chinook  2015 2015-03-06       0
#>  7 Chinook  2015 2015-03-07       0
#>  8 Chinook  2015 2015-03-08       0
#>  9 Chinook  2015 2015-03-09       0
#> 10 Chinook  2015 2015-03-10       0
#> # ℹ 160 more rows
…
