DART Window Counts — queryWindowCnts • STADEM
…
start_date
character vector of date (YYYYMMDD) when query should start

end_date
character vector of date (YYYYMMDD) when query should end

    Author

    Kevin See

    Examples

queryWindowCnts(dam = "LWG", spp_code = "fc", start_date = '20150301', end_date = '20150817')
#> # A tibble: 170 × 4
#>    Location  Year Date       Chinook
#>    <chr>    <int> <date>       <dbl>
#>  1 LWG       2015 2015-03-01      NA
#>  2 LWG       2015 2015-03-02      NA
#>  3 LWG       2015 2015-03-03      NA
#>  4 LWG       2015 2015-03-04      NA
#>  5 LWG       2015 2015-03-05       0
#>  6 LWG       2015 2015-03-06       0
#>  7 LWG       2015 2015-03-07       0
#>  8 LWG       2015 2015-03-08       0
#>  9 LWG       2015 2015-03-09       0
#> 10 LWG       2015 2015-03-10       0
#> # ℹ 160 more rows
…
